<?xml version="1.0" encoding="utf-8"?>
<!-- Generator: Adobe Illustrator 24.2.3, SVG Export Plug-In . SVG Version: 6.00 Build 0)  -->
<svg version="1.1" id="Layer_1" xmlns="http://www.w3.org/2000/svg" xmlns:xlink="http://www.w3.org/1999/xlink" x="0px" y="0px"
	 viewBox="0 0 354.8 634.4" style="enable-background:new 0 0 354.8 634.4;" xml:space="preserve">
<style type="text/css">
	.st0{enable-background:new    ;}
</style>
<path id="prefix__quote" class="st0" d="M354.8,225.7c0-91.4-46-165.9-136.8-221.1c-5.2-3.1-9.5-4.6-12.9-4.6c-1.8,0-6.1,0-9.5,8.9
	c-33.4,73.6-61,132.2-82.5,174.5c-4.6,14.7-0.6,26.7,12.3,37.1c84.6,69.3,126,122.4,126,162.5c0,10.4-7.1,31.6-68.7,93.2
	c-44.9,46-94,87.6-146.9,124.2C5.2,622.2,0.6,631.4,0,633.8c1.9,0.5,3.9,0.7,5.8,0.6c5.8,0,14.1-1.2,24.8-3.7
	c87.1-21.5,154.9-56.1,201.2-103c26.4-26.7,52.7-70.2,78.8-129.1C339.8,332.7,354.8,274.4,354.8,225.7L354.8,225.7z"/>
</svg>
