<?xml version="1.0" encoding="utf-8"?>
<!-- Generator: Adobe Illustrator 25.2.1, SVG Export Plug-In . SVG Version: 6.00 Build 0)  -->
<svg version="1.1" xmlns="http://www.w3.org/2000/svg" xmlns:xlink="http://www.w3.org/1999/xlink" x="0px" y="0px"
	 viewBox="0 0 47.8 95" style="enable-background:new 0 0 47.8 95;" xml:space="preserve">
<style type="text/css">
	.st0{fill:#FFFFFF;}
</style>
<g id="Layer_2">
</g>
<g id="Layer_1">
	<g>
		<path class="st0" d="M23.9,0C10.7,0,0,10.7,0,23.9v22.7c0,9.8,6,18.3,14.5,22v-7.7c-4.6-3.1-7.7-8.3-7.7-14.3V23.9
			c0-9.4,7.7-17.1,17.1-17.1c9.5,0,17.1,7.7,17.1,17.1v22.7c0,6-3.1,11.2-7.7,14.3v7.7c8.5-3.7,14.5-12.1,14.5-22V23.9
			C47.8,10.7,37.1,0,23.9,0z"/>
		<path class="st0" d="M23.9,30.2c1.9,0,3.4-1.5,3.4-3.4v-9.2c0-1.9-1.5-3.4-3.4-3.4s-3.4,1.5-3.4,3.4v9.2
			C20.5,28.6,22,30.2,23.9,30.2z"/>
		<path class="st0" d="M33,77.8l-5.7,5.7V53.6c0-1.9-1.5-3.4-3.4-3.4s-3.4,1.5-3.4,3.4v29.8l-5.7-5.7c-1.3-1.3-3.5-1.3-4.8,0
			s-1.3,3.5,0,4.8L21.5,94c0.7,0.7,1.5,1,2.4,1s1.7-0.3,2.4-1l11.5-11.5c1.3-1.3,1.3-3.5,0-4.8C36.4,76.4,34.3,76.4,33,77.8z"/>
	</g>
</g>
</svg>
