<?xml version="1.0" encoding="utf-8"?>
<!-- Generator: Adobe Illustrator 25.0.0, SVG Export Plug-In . SVG Version: 6.00 Build 0)  -->
<svg version="1.1" id="Layer_1" xmlns="http://www.w3.org/2000/svg" xmlns:xlink="http://www.w3.org/1999/xlink" x="0px" y="0px"
	 viewBox="0 0 13.8 20.5" style="enable-background:new 0 0 13.8 20.5;" xml:space="preserve">
<style type="text/css">
	.st0{fill:#AFB7C4;}
</style>
<path class="st0" d="M13.1,0H0.7C0.3,0,0,0.3,0,0.7v19.2c0,0.2,0.1,0.4,0.2,0.5c0.1,0.1,0.3,0.2,0.5,0.2c0.1,0,0.3,0,0.4-0.1l5.8-4
	l5.8,4c0.3,0.2,0.7,0.1,0.9-0.2c0.1-0.1,0.1-0.2,0.1-0.4V0.7C13.8,0.3,13.5,0,13.1,0z"/>
</svg>
