<svg xmlns="http://www.w3.org/2000/svg" width="265.644" height="18.742" viewBox="0 0 265.644 18.742">
  <path id="Path_5389" data-name="Path 5389" d="M291.311,89.505H72.462L45.328,107.247V89.505H26.667" transform="translate(-26.167 -89.005)" fill="none" stroke="#afb7c4" stroke-linecap="round" stroke-linejoin="round" stroke-width="1"/>
</svg>
