<?xml version="1.0" encoding="utf-8"?>
<!-- Generator: Adobe Illustrator 25.2.1, SVG Export Plug-In . SVG Version: 6.00 Build 0)  -->
<svg version="1.1" id="Layer_1" xmlns="http://www.w3.org/2000/svg" xmlns:xlink="http://www.w3.org/1999/xlink" x="0px" y="0px"
	 viewBox="0 0 20 20.9" style="enable-background:new 0 0 20 20.9;" xml:space="preserve">
<path class="st0" d="M19.6,14.5c-0.4-0.2-0.8-0.1-1,0.3c-1.7,2.9-4.9,4.7-8.3,4.7c-4.3,0-8.8-2.3-8.8-8.7v-0.5
	c0-4.3,4.1-8.7,8.2-8.7c0,0,0,0,0,0c4.2,0,7.6,3.4,7.6,7.6c0,1.1-0.3,2.2-0.8,3.1c-1.2,2.3-2.2,2.8-2.7,2.8c-0.5,0.1-0.9-0.2-1-0.4
	c0-0.3,0.1-0.6,0.1-0.9L14.8,5c0.1-0.4-0.2-0.8-0.6-0.9c-0.4-0.1-0.8,0.2-0.9,0.6l-0.3,1.2c-0.2-0.4-0.4-0.8-0.6-1.1c0,0,0,0,0,0
	C11.8,4,10.8,3.5,9.8,3.6c-1.1,0-2.2,0.5-3,1.3C5.9,5.8,5.3,6.9,5,8.1c-0.4,1.2-0.6,2.4-0.6,3.5c-0.1,1.2,0.2,2.4,1,3.4
	c0.6,0.8,1.5,1.2,2.5,1.2c0,0,0,0,0,0c0.7,0,1.4-0.2,2-0.5c0.5-0.3,1-0.7,1.4-1.2c0,0,0.1-0.1,0.1-0.1c0,0.1,0,0.1,0,0.2
	c0,0.3,0.1,0.6,0.3,1c0.3,0.4,1.2,1.1,2.3,1c1.4-0.1,2.7-1.4,3.9-3.6c0.6-1.2,0.9-2.5,0.9-3.8c0-5-4.1-9.1-9.1-9.1c0,0,0,0,0,0
	C4.8,0,0,5,0,10.2v0.5c0,6.2,4.1,10.2,10.3,10.2c0.1,0,0.1,0,0.2,0c3.9,0,7.5-2.1,9.4-5.4C20.1,15.1,20,14.7,19.6,14.5z M10.1,13.6
	c-0.3,0.3-0.6,0.6-0.9,0.8c-0.4,0.2-0.8,0.3-1.3,0.3c-0.6,0-1-0.2-1.3-0.6c-0.5-0.7-0.7-1.5-0.7-2.4c0-1.1,0.2-2.1,0.5-3.2
	c0.2-1,0.8-1.9,1.5-2.6c0.5-0.5,1.2-0.8,2-0.8c0,0,0.1,0,0.1,0c0.5,0,1,0.2,1.3,0.6C11.8,6.4,12,7.1,11.9,8c0,1.1-0.2,2.1-0.6,3.2
	C11.1,12,10.7,12.9,10.1,13.6z"/>
</svg>
