<svg xmlns="http://www.w3.org/2000/svg" width="25.201" height="25.048" viewBox="0 0 25.201 25.048">
  <path id="fb" d="M-998.8,410.6a12.6,12.6,0,0,0-12.6-12.6,12.6,12.6,0,0,0-12.6,12.6,12.6,12.6,0,0,0,10.632,12.447v-8.805h-3.2V410.6h3.2v-2.776c0-3.158,1.881-4.9,4.759-4.9a19.377,19.377,0,0,1,2.821.246v3.1h-1.589a1.821,1.821,0,0,0-2.053,1.968V410.6h3.495l-.559,3.642h-2.936v8.805A12.6,12.6,0,0,0-998.8,410.6Z" transform="translate(1024 -398)" fill="#afb7c4"/>
</svg>
