<svg id="Menu_icon" data-name="Menu icon" xmlns="http://www.w3.org/2000/svg" width="15.667" height="13.926" viewBox="0 0 15.667 13.926">
  <g id="Path_2545" data-name="Path 2545">
    <path id="Path_5233" data-name="Path 5233" d="M497.075,666.926l-1.075-.7L502.776,653l1.075.7Z" transform="translate(-496 -653)"/>
  </g>
  <g id="Path_2547" data-name="Path 2547" transform="translate(7.816)">
    <path id="Path_5234" data-name="Path 5234" d="M541.977,666.926l-1.075-.7L547.678,653l1.075.7Z" transform="translate(-540.902 -653)"/>
  </g>
</svg>
