<?xml version="1.0" encoding="utf-8"?>
<!-- Generator: Adobe Illustrator 25.0.1, SVG Export Plug-In . SVG Version: 6.00 Build 0)  -->
<svg version="1.1" id="Layer_1" xmlns="http://www.w3.org/2000/svg" xmlns:xlink="http://www.w3.org/1999/xlink" x="0px" y="0px"
	 viewBox="0 0 30.3 11.5" style="enable-background:new 0 0 30.3 11.5;" xml:space="preserve">
<style type="text/css">
	.st0{enable-background:new    ;}
	.st1{fill:#65727D;}
</style>
<g class="st0">
	<path class="st1" d="M6.9,1.3c-2.4,1-3.7,2.1-3.7,4c0,1.7,1.3,2.7,3,3c0.3,0,0.7,0.4,0.7,1c0,1.3-1.2,1.9-2.1,1.9H4.6
		C2.5,11.1,0,9.3,0,6.3C0,2.9,3.2,0.8,6.4,0L6.9,1.3z"/>
	<path class="st1" d="M25.8,0.3c2.1,0,4.6,1.8,4.6,4.9c0,3.4-3.2,5.5-6.3,6.3l-0.4-1.3c2.3-1,3.7-2.1,3.7-4c0-1.6-1.3-2.6-3-2.9
		c-0.3,0-0.6-0.4-0.6-1.1C23.6,0.9,24.8,0.3,25.8,0.3L25.8,0.3z"/>
</g>
</svg>
