<?xml version="1.0" encoding="utf-8"?>
<!-- Generator: Adobe Illustrator 25.2.0, SVG Export Plug-In . SVG Version: 6.00 Build 0)  -->
<svg version="1.1" id="Layer_1" xmlns="http://www.w3.org/2000/svg" xmlns:xlink="http://www.w3.org/1999/xlink" x="0px" y="0px"
	 viewBox="0 0 908.4 533.9" style="enable-background:new 0 0 908.4 533.9;" xml:space="preserve">
<g id="Group_4389" style="opacity:0.4;">
	<g id="Group_4386" transform="translate(0)">
		<path id="Path_6431" style="fill:#DFE4EA;" d="M157.7,177c-13.1-0.1-26.3,0.7-39.3,2.5c-1,0.2-1.6,1.1-1.5,2.1
			c0.2,1,1.1,1.6,2,1.5c56.4-8.8,156.4,8.3,157.4,8.5c1,0.2,1.9-0.5,2.1-1.5c0.2-1-0.5-1.9-1.5-2.1C276.1,187.9,212.4,177,157.7,177
			z"/>
		<path id="Path_6432" style="fill:#DFE4EA;" d="M264.2,367.3c-3,0-6,0.1-8.9,0.3c-1,0.1-1.7,1-1.6,2c0.1,1,0.9,1.7,1.9,1.7
			c20.6-1.5,43.9,2.4,71.1,11.9c0.9,0.4,2-0.1,2.3-1.1c0.4-0.9-0.1-2-1.1-2.3c0,0-0.1,0-0.1,0C304,371.4,283,367.3,264.2,367.3z"/>
		<g id="Group_4385">
			<path id="Path_6435" style="fill:#DFE4EA;" d="M317.8,294c0.1-0.5,0.2-1.1,0.2-1.6C317.9,293,317.8,293.5,317.8,294z"/>
			<path id="Path_6436" style="fill:#DFE4EA;" d="M318.1,292c3.2-20.4,10.5-46.8,26.7-75.3C331.4,240,322.4,265.5,318.1,292z"/>
			<path id="Path_6437" style="fill:#DFE4EA;" d="M345.1,216c0.5-0.8,0.9-1.7,1.4-2.5C346,214.3,345.6,215.1,345.1,216z"/>
			<path id="Path_6438" style="fill:#DFE4EA;" d="M382.9,0L382.9,0L382.9,0C382.8,0,382.8,0,382.9,0z"/>
			<path id="Path_6439" style="fill:#DFE4EA;" d="M385.1,0.2c-0.1,0-0.3,0-0.4-0.1C384.8,0.1,385,0.2,385.1,0.2z"/>
			<path id="Path_6440" style="fill:#DFE4EA;" d="M347.3,212.2c0.4-0.7,0.8-1.3,1.2-2C348.1,210.8,347.7,211.5,347.3,212.2z"/>
			<path id="Path_6441" style="fill:#DFE4EA;" d="M478.1,446.7c-4.3-70-14.3-106.9-24.3-126.2C464.8,339.3,474.7,376.3,478.1,446.7z
				"/>
			<path id="Path_6442" style="fill:#DFE4EA;" d="M397.2,19.2l0-0.1L397.2,19.2z"/>
			<path id="Path_6443" style="fill:#DFE4EA;" d="M397.1,84.9C397.1,85,397.1,85,397.1,84.9C397.1,85,397.1,84.9,397.1,84.9
				L397.1,84.9z"/>
			<path id="Path_6444" style="fill:#DFE4EA;" d="M394.9,96.8c0.3-1.6,0.6-3.2,0.9-4.7C395.6,93.7,395.3,95.3,394.9,96.8z"/>
			<path id="Path_6445" style="fill:#DFE4EA;" d="M393,105.7c0.5-2,0.9-4.1,1.4-6.1C394,101.6,393.5,103.7,393,105.7z"/>
			<path id="Path_6446" style="fill:#DFE4EA;" d="M349.7,208.2c0.3-0.5,0.6-1,0.9-1.5C350.3,207.2,350,207.7,349.7,208.2z"/>
			<path id="Path_6447" style="fill:#DFE4EA;" d="M386.9,0.6c-0.1,0-0.2,0-0.2-0.1C386.7,0.5,386.8,0.5,386.9,0.6z"/>
			<path id="Path_6448" style="fill:#DFE4EA;" d="M356.6,197.2c0.8-1.3,1.6-2.7,2.4-4.1C358.3,194.5,357.5,195.9,356.6,197.2z"/>
			<path id="Path_6449" style="fill:#DFE4EA;" d="M363.6,185c13-24.7,22.8-50.9,29.1-78C386.4,134.1,376.6,160.3,363.6,185z"/>
			<path id="Path_6450" style="fill:#DFE4EA;" d="M360.2,191.1c1.1-1.9,2.2-3.9,3.3-5.9C362.4,187.2,361.3,189.2,360.2,191.1z"/>
			<path id="Path_6451" style="fill:#DFE4EA;" d="M369,182.5l0.1-0.2L369,182.5z"/>
			<path id="Path_6452" style="fill:#DFE4EA;" d="M353.7,208.6c0.7-1.1,1.4-2.3,2.2-3.4C355.2,206.3,354.5,207.5,353.7,208.6z"/>
			<path id="Path_6453" style="fill:#DFE4EA;" d="M349.7,215.3c0.3-0.5,0.6-1,0.9-1.5C350.3,214.3,350,214.8,349.7,215.3z"/>
			<path id="Path_6454" style="fill:#DFE4EA;" d="M351.7,212c0.4-0.7,0.8-1.3,1.2-2C352.5,210.7,352.1,211.3,351.7,212z"/>
			<path id="Path_6455" style="fill:#DFE4EA;" d="M396.6,17.4c-0.1-0.2-0.1-0.3-0.2-0.5C396.5,17.1,396.6,17.3,396.6,17.4z"/>
			<path id="Path_6456" style="fill:#DFE4EA;" d="M346.1,221.7c0.1-0.3,0.3-0.5,0.4-0.8C346.4,221.2,346.2,221.4,346.1,221.7z"/>
			<path id="Path_6457" style="fill:#DFE4EA;" d="M344.5,224.7c0.1-0.1,0.1-0.2,0.2-0.4C344.6,224.5,344.5,224.6,344.5,224.7z"/>
			<path id="Path_6458" style="fill:#DFE4EA;" d="M347.8,218.5c0.2-0.4,0.4-0.8,0.7-1.1C348.3,217.8,348,218.2,347.8,218.5z"/>
			<path id="Path_6459" style="fill:#DFE4EA;" d="M355.9,205.2c1.3-2,2.6-4,3.8-6.1C358.5,201.2,357.2,203.2,355.9,205.2z"/>
			<path id="Path_6460" style="fill:#DFE4EA;" d="M330.6,256.7c0.2-0.5,0.4-1.1,0.6-1.6C331,255.6,330.8,256.2,330.6,256.7z"/>
			<path id="Path_6461" style="fill:#DFE4EA;" d="M395.4,6.9c-0.2-0.2-0.3-0.4-0.5-0.7C395.1,6.4,395.2,6.7,395.4,6.9z"/>
			<path id="Path_6462" style="fill:#DFE4EA;" d="M392.1,3.3L392.1,3.3L392.1,3.3z"/>
			<path id="Path_6463" style="fill:#DFE4EA;" d="M399.7,91.5c0.4-1.9,0.7-3.9,1-5.8C400.4,87.7,400,89.6,399.7,91.5z"/>
			<path id="Path_6464" style="fill:#DFE4EA;" d="M360.1,198.6c1.1-1.7,2.1-3.5,3.1-5.3C362.2,195,361.1,196.8,360.1,198.6z"/>
			<path id="Path_6465" style="fill:#DFE4EA;" d="M331.8,253.3c0.1-0.2,0.1-0.4,0.2-0.5C331.9,252.9,331.9,253.1,331.8,253.3z"/>
			<path id="Path_6466" style="fill:#DFE4EA;" d="M390.4,2.1L390.4,2.1L390.4,2.1z"/>
			<path id="Path_6467" style="fill:#DFE4EA;" d="M364.5,191c0.6-1.1,1.2-2.2,1.8-3.4C365.7,188.7,365.1,189.9,364.5,191z"/>
			<path id="Path_6468" style="fill:#DFE4EA;" d="M386,4.1c-0.3-0.1-0.6-0.2-0.9-0.2C385.4,4,385.7,4,386,4.1z"/>
			<path id="Path_6469" style="fill:#DFE4EA;" d="M381.3,3.8c1.1-0.1,2.2-0.1,3.3,0C383.5,3.6,382.4,3.6,381.3,3.8z"/>
			<path id="Path_6470" style="fill:#DFE4EA;" d="M316.4,305.5l0,0.1L316.4,305.5C316.4,305.5,316.4,305.5,316.4,305.5z"/>
			<path id="Path_6471" style="fill:#DFE4EA;" d="M437.9,300.4c-5.9-2.2-12.3-2.2-18.2,0.1c-2.9,0.3-5.5,0.7-5.8,0.7
				c-6.4,0.7-40.8,4.3-89.8,6.1l-2.9,0.1l-1.3,0c1.4-17,4.9-33.7,10.5-49.9c-5.1,15-8.5,30.5-10.1,46.2l0.9,0l2.8-0.1
				c48.9-1.8,83.2-5.4,89.6-6.1c0.6-0.1,13.1-1.6,13.2-1.6c6.5-0.5,12.7,1.7,18.3,6.6c4.4,3.8,8.4,9.3,12.1,16.3
				C451.6,309.4,445.1,303.2,437.9,300.4z"/>
			<path id="Path_6472" style="fill:#DFE4EA;" d="M394.7,12.8c-0.2-0.3-0.3-0.6-0.5-0.9C394.4,12.2,394.6,12.5,394.7,12.8z"/>
			<path id="Path_6473" style="fill:#DFE4EA;" d="M390.2,6.5c0.1,0.1,0.2,0.2,0.3,0.3c-0.2-0.2-0.4-0.4-0.7-0.6
				C390,6.3,390.1,6.4,390.2,6.5z"/>
			<path id="Path_6474" style="fill:#DFE4EA;" d="M394,11.5c-0.2-0.3-0.3-0.6-0.5-0.9C393.7,10.9,393.8,11.2,394,11.5z"/>
			<path id="Path_6475" style="fill:#DFE4EA;" d="M393.3,10.2c-0.3-0.5-0.7-1-1-1.4C392.6,9.2,392.9,9.7,393.3,10.2z"/>
			<path id="Path_6476" style="fill:#DFE4EA;" d="M396,7.7c0.2,0.2,0.3,0.4,0.5,0.7c8.7,13.8,9.9,42.8,4.4,76.5
				C406.6,49.3,404.7,20.7,396,7.7z"/>
			<path id="Path_6477" style="fill:#DFE4EA;" d="M389.2,5.7c-0.2-0.2-0.5-0.3-0.7-0.4C388.7,5.4,389,5.6,389.2,5.7z"/>
			<path id="Path_6478" style="fill:#DFE4EA;" d="M369.9,4.5"/>
			<path id="Path_6479" style="fill:#DFE4EA;" d="M27.7,9.5C22.9,20.6-16.4,115,17.3,159.7c15.4,20.5,44.3,27.8,85.7,21.6
				c2-0.3,4.2-0.4,6.2-0.5l0.3,0c0.6,0,1.3,0.3,1.6,0.8c0.4,0.5,0.4,1.2,0.2,1.8c-13.7,32.9-24,67.2-30.8,102.3
				c-3.8,20.2-2.1,48.9,14.1,68.6c11,13.4,26.8,20.3,47.1,20.5c34.6,0.4,113.3-7,114.1-7.1c0.6-0.1,1.2,0.2,1.6,0.7
				c5,6.5,5.1,6.7,5.2,6.8c0.3,0.5,1,1.4,2,2.8c22.5,31.7,41.1,66.1,55.1,102.4c18.2,46.7,83,43,140.1,39.8
				c19.8-1.1,38.6-2.2,53.9-1c0.5,0,23,1.7,23,1.7c36.7,2.5,87.1-20.8,136-46.3c0.1,0,0.1-0.1,0.2-0.1c3.7-1.4,7.6-1.8,11.5-1.3
				c8.2,0.9,41.4,13.1,55.7,57.1c10.8-1.8,75.4-11.8,109.3-9.1c29.3,2.3,48.2,4.7,54.7,5.6c-1.7-7.6-7.8-31.2-20.7-54.1
				c-20.6-36.7-47.9-54.2-81.2-51.8c-8.2,0.5-23.7,1.5-24,1.5c-1.9,0.2-46.6,4.1-62.6,5.3c-4.7,0.3-11.6,0.1-19.7-0.3
				c-20.7-0.8-49.1-2-71.8,5.5c-17.1,5.6-29.9,12.9-46.1,22.1c-13.8,7.9-31.1,17.7-56,29.3c-7.9,3.7-30.3,10.3-31.2,10.6
				c-0.8,0.2-1.7-0.1-2.1-0.9c-6.1-11.7-9.5-26.6-10.8-46.9v0c0,1,0.9,1.8,1.9,1.7c1,0,1.8-0.9,1.7-1.9v0c1.2,19,4.3,33,9.7,44.1
				c5.2-1.6,22.7-6.9,29.3-10c24.8-11.6,42-21.3,55.8-29.2c16.4-9.3,29.3-16.7,46.7-22.4c23.3-7.7,52-6.5,73-5.6
				c7.9,0.3,14.8,0.6,19.2,0.3c16-1.2,62.1-5.2,62.6-5.2c0.1,0,13.2-0.8,24.1-1.5c2-0.1,4-0.2,6-0.2c31.7,0,58.8,18.5,78.7,53.9
				c15.8,28.1,21.6,57.4,21.6,57.7c0.2,1-0.5,1.9-1.4,2.1c-0.2,0-0.4,0-0.6,0c-0.2,0-20.4-3-57.1-5.9c-36.6-2.9-109.3,9.2-110,9.3
				c-0.9,0.1-1.8-0.4-2-1.3c-15.3-49-52.7-56-53.1-56c-3.2-0.4-6.5-0.1-9.6,1l0,0c-49.4,25.8-100.4,49.3-138,46.7
				c0,0-22.5-1.7-23-1.7c-15.1-1.2-33.7-0.1-53.4,1c-58.4,3.3-124.5,7-143.7-42.1c-14-36-32.3-70.1-54.7-101.6c-1-1.4-1.7-2.4-2-2.9
				c-0.2-0.3-2.6-3.4-4.4-5.8c-9.3,0.9-80.9,7.3-113.5,7c-21.4-0.2-38.1-7.5-49.9-21.8c-17-20.7-18.8-50.5-14.9-71.5
				c6.6-34.3,16.6-67.9,29.8-100.3c-1.1,0.1-2.3,0.2-3.3,0.3c-42.8,6.4-72.8-1.4-89.1-23.1c-15.6-20.6-18.5-53.1-8.7-96.3
				c4.6-20.1,11.1-39.7,19.2-58.6c0.3-0.6,0.9-1.1,1.6-1.1"/>
			<path id="Path_6480" style="fill:#DFE4EA;" d="M387.4,4.7c-0.3-0.1-0.5-0.3-0.8-0.4C386.9,4.4,387.2,4.6,387.4,4.7z"/>
			<path id="Path_6481" style="fill:#DFE4EA;" d="M392.1,8.5c-0.3-0.4-0.7-0.8-1.1-1.2C391.4,7.7,391.7,8.1,392.1,8.5z"/>
			<path id="Path_6482" style="fill:#DFE4EA;" d="M396,15.8c-0.1-0.3-0.2-0.5-0.3-0.7C395.8,15.3,395.9,15.6,396,15.8z"/>
			<path id="Path_6483" style="fill:#DFE4EA;" d="M395.4,14.3c-0.1-0.3-0.3-0.6-0.4-0.9C395.1,13.7,395.3,14,395.4,14.3z"/>
			<path id="Path_6484" style="fill:#DFE4EA;" d="M436.6,303.8c-13.9-5.3-26.8,6.2-30.5,9.9c-6,6-12.8,16-19.9,26.5
				c-14.4,21.2-29.3,43.1-44.2,44.1c-5.2,0.4-10.5-3.6-14.9-11.1c-8.2-13.9-13.1-38.3-10.6-67.7c0,1,0.8,1.8,1.7,1.8
				c0,0,0.1,0,0.1,0l1.6,0c-2.2,27.9,2.5,50.8,10.3,64c3.7,6.3,7.8,9.6,11.5,9.3c13.2-0.9,28.2-23,41.5-42.6
				c7.3-10.7,14.1-20.8,20.3-27.1c4.6-4.6,10.1-8.3,16.2-10.6l7.4-0.9c5.4-0.4,10.7,1.5,15.5,5.7c3.5,3.1,7.4,7.9,11.2,15.2
				C448.1,310.8,442.1,305.9,436.6,303.8z"/>
			<path id="Path_6485" style="fill:#DFE4EA;" d="M363.2,193.2c0.4-0.8,0.9-1.5,1.3-2.3C364.1,191.7,363.6,192.5,363.2,193.2z"/>
			<path id="Path_6486" style="fill:#DFE4EA;" d="M400.7,85.5c0,0.1,0,0.2,0,0.2c0-0.3,0.1-0.6,0.1-0.8
				C400.8,85.1,400.8,85.3,400.7,85.5z"/>
			<path id="Path_6487" style="fill:#DFE4EA;" d="M396.4,16.9c-0.1-0.4-0.3-0.8-0.4-1.1C396.2,16.2,396.3,16.6,396.4,16.9z"/>
			<path id="Path_6488" style="fill:#DFE4EA;" d="M366.3,187.6c0.9-1.7,1.8-3.4,2.7-5.1C368.1,184.2,367.2,185.9,366.3,187.6z"/>
			<path id="Path_6489" style="fill:#DFE4EA;" d="M385.1,3.9c-0.2,0-0.4-0.1-0.5-0.1C384.7,3.8,384.9,3.9,385.1,3.9z"/>
			<path id="Path_6490" style="fill:#DFE4EA;" d="M397.2,19.2c4.4,14.7,4.4,38.4,0,65.7C401.6,57.3,401.5,33.7,397.2,19.2z"/>
			<path id="Path_6491" style="fill:#DFE4EA;" d="M369.1,182.3c14.7-28.8,25.1-61.3,30.6-90.8C393.9,123.1,383.6,153.7,369.1,182.3z
				"/>
			<path id="Path_6492" style="fill:#DFE4EA;" d="M381.3,3.8c-4.2,0.5-8.9,3-14.3,7.5c-23.8,19.9-32.4,62.5-40,100.1
				c-9,44.5-17.5,86.6-50.1,80.4c-10.2-1.9-18.2-7.6-23.8-16.8c-15.9-26.2-9.8-75.3,1.3-112.6c0.3-1,1.3-1.5,2.3-1.2
				c1,0.3,1.5,1.3,1.2,2.3l0,0c-10.4,34.9-17,84.5-1.7,109.7c5,8.3,12.2,13.4,21.3,15.1c29,5.5,36.8-33,45.8-77.6
				c7.7-38.2,16.4-81.5,41.2-102.2c1.7-1.4,3.5-2.7,5.3-3.9c7-0.4,11.1-0.7,11.2-0.8C381.2,3.8,381.2,3.8,381.3,3.8z"/>
			<path id="Path_6493" style="fill:#DFE4EA;" d="M457.1,318.9c13.4,23.1,21.7,65.8,24.6,127.7v0C478,385.7,469.7,343,457.1,318.9z"
				/>
			<path id="Path_6494" style="fill:#DFE4EA;" d="M344.6,224.4c0.5-0.9,1-1.8,1.4-2.7C345.6,222.6,345.1,223.5,344.6,224.4z"/>
			<path id="Path_6495" style="fill:#DFE4EA;" d="M332,252.7c3.5-9.6,7.7-19,12.5-28C339.7,233.8,335.5,243.1,332,252.7z"/>
			<path id="Path_6496" style="fill:#DFE4EA;" d="M346.5,220.9c0.4-0.8,0.9-1.6,1.3-2.4C347.4,219.3,346.9,220.1,346.5,220.9z"/>
			<path id="Path_6497" style="fill:#DFE4EA;" d="M331.2,255.1c0.2-0.6,0.4-1.2,0.6-1.8C331.6,253.9,331.4,254.5,331.2,255.1z"/>
			<path id="Path_6498" style="fill:#DFE4EA;" d="M359.8,199.1l0.3-0.6L359.8,199.1z"/>
			<path id="Path_6499" style="fill:#DFE4EA;" d="M330.3,257.5c0.1-0.3,0.2-0.6,0.3-0.8C330.5,257,330.4,257.2,330.3,257.5z"/>
			<path id="Path_6500" style="fill:#DFE4EA;" d="M386.6,4.3c-0.2-0.1-0.4-0.1-0.6-0.2C386.2,4.2,386.4,4.3,386.6,4.3z"/>
			<path id="Path_6501" style="fill:#DFE4EA;" d="M478.1,446.7L478.1,446.7L478.1,446.7L478.1,446.7z"/>
			<path id="Path_6502" style="fill:#DFE4EA;" d="M352.9,210c0.3-0.5,0.6-0.9,0.9-1.4C353.5,209.1,353.2,209.5,352.9,210z"/>
			<path id="Path_6503" style="fill:#DFE4EA;" d="M350.6,213.8c0.4-0.6,0.7-1.2,1.1-1.8C351.3,212.6,350.9,213.2,350.6,213.8z"/>
			<path id="Path_6504" style="fill:#DFE4EA;" d="M392.1,3.4c0.2,0.1,0.3,0.3,0.5,0.4c0.8,0.8,1.6,1.6,2.3,2.5
				C394.1,5.2,393.1,4.2,392.1,3.4z"/>
			<path id="Path_6505" style="fill:#DFE4EA;" d="M348.5,217.4c0.4-0.7,0.8-1.4,1.2-2.1C349.3,216,348.9,216.7,348.5,217.4z"/>
			<path id="Path_6506" style="fill:#DFE4EA;" d="M396,7.7c-0.2-0.3-0.4-0.6-0.6-0.9C395.6,7.2,395.8,7.4,396,7.7z"/>
			<path id="Path_6507" style="fill:#DFE4EA;" d="M352.9,203.2c1.3-2,2.5-3.9,3.8-6C355.4,199.3,354.1,201.2,352.9,203.2z"/>
			<path id="Path_6508" style="fill:#DFE4EA;" d="M359.1,193.1c0.4-0.7,0.8-1.3,1.2-2C359.8,191.8,359.4,192.4,359.1,193.1z"/>
			<path id="Path_6509" style="fill:#DFE4EA;" d="M394.3,11.9c-0.1-0.2-0.2-0.3-0.3-0.5C394.1,11.6,394.2,11.8,394.3,11.9z"/>
			<path id="Path_6510" style="fill:#DFE4EA;" d="M350.6,206.7c0.7-1.2,1.5-2.3,2.2-3.5C352.1,204.4,351.4,205.5,350.6,206.7z"/>
			<path id="Path_6511" style="fill:#DFE4EA;" d="M393.4,10.4c0,0.1,0.1,0.1,0.1,0.2c-0.1-0.1-0.2-0.2-0.2-0.4
				C393.3,10.3,393.3,10.3,393.4,10.4z"/>
			<path id="Path_6512" style="fill:#DFE4EA;" d="M363.5,185.2c0.1-0.1,0.1-0.2,0.2-0.3C363.6,185.1,363.5,185.1,363.5,185.2z"/>
			<path id="Path_6513" style="fill:#DFE4EA;" d="M392.7,106.9c0.1-0.4,0.2-0.8,0.3-1.2C392.9,106.1,392.8,106.5,392.7,106.9z"/>
			<path id="Path_6514" style="fill:#DFE4EA;" d="M348.5,210.2c0.4-0.6,0.8-1.3,1.2-1.9C349.3,208.9,348.9,209.5,348.5,210.2z"/>
			<path id="Path_6515" style="fill:#DFE4EA;" d="M396,91.5c0,0.2-0.1,0.4-0.1,0.6c0.4-2.4,0.9-4.7,1.2-7.1
				C396.8,87.2,396.4,89.3,396,91.5z"/>
			<path id="Path_6516" style="fill:#DFE4EA;" d="M397.1,19c-0.2-0.5-0.3-1.1-0.5-1.6C396.8,18,397,18.5,397.1,19z"/>
			<path id="Path_6517" style="fill:#DFE4EA;" d="M395.7,15.1c-0.1-0.3-0.2-0.5-0.3-0.8C395.5,14.6,395.6,14.8,395.7,15.1z"/>
			<path id="Path_6518" style="fill:#DFE4EA;" d="M394.4,99.6c0.2-0.9,0.4-1.8,0.6-2.7C394.8,97.8,394.6,98.7,394.4,99.6z"/>
			<path id="Path_6519" style="fill:#DFE4EA;" d="M395,13.4c-0.1-0.2-0.2-0.4-0.3-0.6C394.8,13,394.9,13.2,395,13.4z"/>
			<path id="Path_6520" style="fill:#DFE4EA;" d="M346.5,213.5c0.3-0.4,0.5-0.9,0.8-1.3C347,212.6,346.8,213.1,346.5,213.5z"/>
			<path id="Path_6521" style="fill:#DFE4EA;" d="M382.9,0c0.6,0,1.2,0,1.8,0.1C384.1,0,383.5,0,382.9,0L382.9,0z"/>
			<path id="Path_6522" style="fill:#DFE4EA;" d="M386.6,0.5c-0.5-0.1-1-0.2-1.5-0.3C385.6,0.3,386.1,0.4,386.6,0.5z"/>
			<path id="Path_6523" style="fill:#DFE4EA;" d="M389.8,6.2c-0.2-0.2-0.4-0.4-0.6-0.5C389.4,5.9,389.6,6.1,389.8,6.2z"/>
			<path id="Path_6524" style="fill:#DFE4EA;" d="M388.5,5.3c-0.3-0.2-0.7-0.4-1.1-0.6C387.8,4.9,388.2,5.1,388.5,5.3z"/>
			<path id="Path_6525" style="fill:#DFE4EA;" d="M392,3.3c-0.5-0.4-1.1-0.8-1.6-1.2C391,2.5,391.5,2.9,392,3.3z"/>
			<path id="Path_6526" style="fill:#DFE4EA;" d="M382.8,0c-0.6,0-1.3,0-1.9,0.1C381.5,0,382.2,0,382.8,0z"/>
			<path id="Path_6527" style="fill:#DFE4EA;" d="M390.4,2.1c-1.1-0.7-2.3-1.2-3.5-1.6C388.1,0.9,389.3,1.4,390.4,2.1z"/>
			<path id="Path_6528" style="fill:#DFE4EA;" d="M344.7,216.7c0.1-0.2,0.3-0.5,0.4-0.7L344.7,216.7z"/>
			<path id="Path_6529" style="fill:#DFE4EA;" d="M316.5,305.1c0,0.1,0,0.2,0,0.4c0.3-3.7,0.8-7.6,1.3-11.5
				C317.2,298,316.8,301.7,316.5,305.1z"/>
			<path id="Path_6530" style="fill:#DFE4EA;" d="M318,292.4c0-0.1,0-0.3,0.1-0.4C318,292.1,318,292.3,318,292.4z"/>
			<path id="Path_6531" style="fill:#DFE4EA;" d="M392.3,8.8c-0.1-0.1-0.1-0.2-0.2-0.2C392.2,8.6,392.2,8.7,392.3,8.8z"/>
			<path id="Path_6532" style="fill:#DFE4EA;" d="M391,7.3c-0.2-0.2-0.3-0.3-0.5-0.5C390.7,7,390.8,7.1,391,7.3z"/>
			<path id="Path_6533" style="fill:#DFE4EA;" d="M480,448.5c-1,0-1.9-0.7-1.9-1.7v0c-3.3-70.4-13.3-107.4-24.3-126.2
				c-3.8-7.3-7.6-12.1-11.2-15.2c-4.8-4.2-10.1-6.1-15.5-5.7l-7.4,0.9c5.8-2.3,12.3-2.3,18.2-0.1c7.3,2.8,13.7,9,19.2,18.5
				c12.6,24.1,20.9,66.8,24.6,127.6v0C481.8,447.6,481,448.4,480,448.5z"/>
			<path id="Path_6534" style="fill:#DFE4EA;" d="M318.3,307.4c0,0-0.1,0-0.1,0c-1,0-1.7-0.8-1.7-1.8l0-0.1c0-0.1,0-0.2,0-0.4
				c0.3-3.4,0.7-7.2,1.3-11.1c0.1-0.5,0.2-1.1,0.2-1.6c0-0.1,0-0.3,0.1-0.4c4.3-26.5,13.3-52,26.7-75.3c0.1-0.2,0.3-0.5,0.4-0.7
				c0.5-0.8,0.9-1.7,1.4-2.5c0.3-0.4,0.5-0.9,0.8-1.3c0.4-0.7,0.8-1.3,1.2-2c0.4-0.6,0.8-1.3,1.2-1.9c0.3-0.5,0.6-1,0.9-1.5
				c0.7-1.2,1.5-2.3,2.2-3.5c1.3-2,2.5-3.9,3.8-6c0.8-1.3,1.6-2.7,2.4-4.1c0.4-0.7,0.8-1.3,1.2-2c1.1-1.9,2.2-3.9,3.3-5.9
				c0.1-0.1,0.1-0.2,0.2-0.3c13-24.7,22.8-50.9,29.1-78c0.1-0.4,0.2-0.8,0.3-1.2c0.5-2,0.9-4.1,1.4-6.1c0.2-0.9,0.4-1.8,0.6-2.7
				c0.3-1.6,0.6-3.2,0.9-4.7c0-0.2,0.1-0.4,0.1-0.6c0.4-2.2,0.8-4.4,1.1-6.5c0,0,0-0.1,0-0.1l0-0.1c4.4-27.3,4.4-51,0-65.7l0-0.1
				c-0.2-0.5-0.3-1.1-0.5-1.6c-0.1-0.2-0.1-0.3-0.2-0.5c-0.1-0.4-0.3-0.8-0.4-1.1c-0.1-0.3-0.2-0.5-0.3-0.7
				c-0.1-0.3-0.2-0.5-0.3-0.8c-0.1-0.3-0.3-0.6-0.4-0.9c-0.1-0.2-0.2-0.4-0.3-0.6c-0.2-0.3-0.3-0.6-0.5-0.9
				c-0.1-0.2-0.2-0.3-0.3-0.5c-0.2-0.3-0.3-0.6-0.5-0.9c0-0.1-0.1-0.1-0.1-0.2s-0.1-0.1-0.1-0.2c-0.3-0.5-0.7-1-1-1.4
				c-0.1-0.1-0.1-0.2-0.2-0.2c-0.3-0.4-0.7-0.9-1.1-1.2c-0.2-0.2-0.3-0.3-0.5-0.5c-0.1-0.1-0.2-0.2-0.3-0.3s-0.2-0.2-0.3-0.3
				c-0.2-0.2-0.4-0.4-0.6-0.5s-0.5-0.3-0.7-0.4c-0.3-0.2-0.7-0.4-1.1-0.6c-0.3-0.1-0.5-0.3-0.8-0.4c-0.2-0.1-0.4-0.1-0.6-0.2
				c-0.3-0.1-0.6-0.2-0.9-0.2c-0.2,0-0.4-0.1-0.5-0.1c-1.1-0.2-2.2-0.2-3.3,0c0,0-0.1,0-0.1,0c-0.1,0-4.3,0.3-11.2,0.8
				c3.3-2.3,7-3.8,11-4.4c0.6-0.1,1.2-0.1,1.9-0.1h0.1c0.6,0,1.2,0,1.8,0.1c0.1,0,0.3,0,0.4,0.1c0.5,0.1,1,0.2,1.5,0.3
				c0.1,0,0.2,0,0.2,0.1c1.2,0.4,2.4,0.9,3.5,1.6l0,0c0.6,0.4,1.1,0.7,1.6,1.2l0,0c1,0.9,2,1.8,2.8,2.9c0.2,0.2,0.3,0.4,0.5,0.7
				c0.2,0.3,0.4,0.6,0.6,0.9c8.7,13,10.6,41.5,4.9,77.2c0,0.3-0.1,0.6-0.1,0.8c-0.3,1.9-0.7,3.9-1,5.8c-5.5,29.5-15.8,62-30.6,90.8
				l-0.1,0.2c-0.9,1.7-1.8,3.4-2.7,5.1c-0.6,1.1-1.2,2.2-1.8,3.4c-0.4,0.8-0.8,1.5-1.3,2.3c-1,1.8-2.1,3.6-3.1,5.3l-0.3,0.6
				c-1.3,2.1-2.5,4.1-3.8,6.1c-0.7,1.1-1.5,2.3-2.2,3.4c-0.3,0.5-0.6,0.9-0.9,1.4c-0.4,0.7-0.8,1.3-1.2,2c-0.4,0.6-0.7,1.2-1.1,1.8
				c-0.3,0.5-0.6,1-0.9,1.5c-0.4,0.7-0.8,1.4-1.2,2.1c-0.2,0.4-0.4,0.8-0.7,1.1c-0.4,0.8-0.9,1.6-1.3,2.4c-0.1,0.3-0.3,0.5-0.4,0.8
				c-0.5,0.9-1,1.8-1.4,2.7c-0.1,0.1-0.1,0.2-0.2,0.4c-4.8,9-8.9,18.4-12.5,28c-0.1,0.2-0.1,0.4-0.2,0.5c-0.2,0.6-0.4,1.2-0.6,1.8
				c-0.2,0.5-0.4,1.1-0.6,1.6c-0.1,0.3-0.2,0.6-0.3,0.8c-5.6,16.1-9.1,32.9-10.5,49.9L318.3,307.4z"/>
		</g>
		<path id="Path_6535" style="fill:#DFE4EA;" d="M491,491.6c-1,0-1.8,0.8-1.8,1.8c0,0.4,0.1,0.7,0.3,1c0,0,0.1,0.2,0.3,0.5
			c0.8,1.4,1.7,3,2.2,3.7c8.1,11.9,20.4,24.3,50.8,25.8c1,0.1,1.9-0.7,1.9-1.7c0.1-1-0.7-1.9-1.7-1.9c0,0,0,0,0,0
			c-28.8-1.5-40.4-13-48-24.2c-0.4-0.6-1.5-2.5-2-3.4c-0.3-0.5-0.4-0.8-0.5-0.8C492.1,491.9,491.6,491.6,491,491.6z"/>
		<path id="Path_6536" style="fill:#DFE4EA;" d="M815,417.1c-14,0.4-28,2.9-41.2,7.5c-17.9,6.4-42.9,19.5-69.3,33.3
			c-10.8,5.6-21.9,11.4-32.4,16.7c-0.9,0.4-1.3,1.5-0.9,2.4c0.4,0.9,1.5,1.3,2.4,0.9c0,0,0,0,0.1,0c10.5-5.3,21.7-11.1,32.4-16.7
			c26.3-13.8,51.2-26.8,68.9-33.1c17.2-6.2,35.4-7.4,40.4-7.3h0c1,0,1.8-0.8,1.8-1.8s-0.8-1.8-1.8-1.8l0,0L815,417.1z"/>
		<path id="Path_6537" style="fill:#DFE4EA;" d="M260.8,373.8c-1,0-1.8,0.8-1.8,1.8c0,0.2,0,0.4,0.1,0.6c0.2,0.5,0.5,1,2.5,3.7
			c22.4,31.5,40.8,65.6,54.7,101.6c19.2,49.2,85.3,45.4,143.7,42.1c20.4-1.2,39.7-2.2,55.1-0.9c1,0.1,1.9-0.6,2-1.6
			c0.1-1-0.6-1.9-1.6-2c0,0,0,0-0.1,0c-15.7-1.4-35.1-0.3-55.6,0.9c-57.1,3.2-121.9,6.9-140.1-39.8c-14.1-36.3-32.6-70.7-55.1-102.4
			c-0.9-1.3-1.8-2.6-2-2.9C262.2,374.2,261.6,373.8,260.8,373.8z M262.6,375c0,0,0-0.1,0-0.1C262.5,374.9,262.5,375,262.6,375
			L262.6,375z"/>
		<path id="Path_6538" style="fill:#DFE4EA;" d="M414.6,297.4c-0.1,0-0.1,0-0.2,0c-0.4,0-37.1,4.2-90.5,6.2c-1,0-1.8,0.9-1.8,1.9
			s0.9,1.8,1.9,1.8l0,0c53.6-2,90.4-6.2,90.8-6.2c1-0.1,1.7-1,1.6-2C416.3,298.1,415.5,297.4,414.6,297.4L414.6,297.4z"/>
	</g>
	<g id="Group_4387" transform="translate(29.147 78.707)">
		<path id="Path_6543" style="fill:#E8EDF3;" d="M127,284l71.5-5.5c11.9-0.9,23.9-1.1,35.8-0.5l23,1.2c4.4,0.2,8.2-3.2,8.4-7.6
			c0-0.7,0-1.3-0.1-1.9c-2.5-12.9-5.8-36.1-2-58c0.8-4.3-2.1-8.5-6.4-9.3c-0.5-0.1-1-0.1-1.5-0.1l-175.6,3.4c-3.9,0.1-7.2,3-7.7,6.8
			c-1.6,10.6-1.3,21.4,0.8,31.9C78.4,269.2,101.7,285.9,127,284z"/>
		<path id="Path_6551" style="fill:#E8EDF3;" d="M310.7,387.5h117.6c1.6,0,3,1.1,3.3,2.6c1.4,6,5.7,21.2,14.3,31.3
			c1.3,1.4,1.1,3.6-0.3,4.8c-0.6,0.5-1.3,0.8-2.1,0.8c-21.2,1-79.3,3.3-105.1-1.9c-2-0.4-4-1.2-5.8-2.2
			c-6.2-3.8-21.1-14.3-25.3-31.2c-0.5-1.8,0.6-3.7,2.5-4.2C310.1,387.6,310.4,387.5,310.7,387.5z"/>
		<path id="Path_6539" style="fill:#DFE4EA;" d="M119.7,63C71.6,63,17,65.7,13.6,65.9c-1,0.1-1.8,0.9-1.7,1.9c0.1,1,0.9,1.7,1.9,1.7
			c1.3-0.1,127.9-6.3,166.7,0c1,0.2,1.9-0.5,2.1-1.5s-0.5-1.9-1.5-2.1l0,0C167.6,63.7,144.5,63,119.7,63z"/>
		<path id="Path_6540" style="fill:#DFE4EA;" d="M149.8,31.9c-1,0-1.8,0.8-1.8,1.8c0,1,0.8,1.8,1.8,1.8c9.4,0.1,17.1,0.4,23,0.7
			c1,0.1,1.9-0.7,1.9-1.7c0.1-1-0.7-1.9-1.7-1.9C167,32.2,159.2,32,149.8,31.9L149.8,31.9z"/>
		<path id="Path_6541" style="fill:#DFE4EA;" d="M124,31.7L124,31.7c-53.2,0.1-121.5,2-122.2,2c-1,0-1.8,0.9-1.8,1.9
			c0,1,0.9,1.8,1.9,1.8l0,0c0.7,0,68.9-1.9,122.1-2c1,0,1.8-0.8,1.8-1.8C125.8,32.5,125,31.7,124,31.7L124,31.7z"/>
		<path id="Path_6542" style="fill:#DFE4EA;" d="M176.8,0H5.8c-1,0-1.8,0.8-1.8,1.8c0,1,0.8,1.8,1.8,1.8h171c1,0,1.8-0.8,1.8-1.8
			C178.6,0.8,177.8,0,176.8,0z"/>
		<path id="Path_6544" style="fill:#DFE4EA;" d="M216.8,179.6c3.5,0,7,0.1,10.5,0.3l49.9,3.1c1,0.1,1.8,0.9,1.7,1.9
			c-0.1,1-0.9,1.8-1.9,1.7c0,0,0,0,0,0l-49.9-3.1c-3.8-0.2-7.6-0.3-11.3-0.3l-37.6,0.2h0c-1,0-1.8-0.8-1.8-1.8c0-1,0.8-1.8,1.8-1.8
			l37.6-0.2C216.1,179.6,216.5,179.6,216.8,179.6z"/>
		<path id="Path_6545" style="fill:#DFE4EA;" d="M230.7,123.7c5.1,0,10.2,0.3,15.3,0.8l12.8,1.4c1,0.1,1.7,1,1.6,2
			c-0.1,1-1,1.7-2,1.6l-12.8-1.4c-5.8-0.6-11.6-0.9-17.4-0.8l-7.4,0.1c-1,0-1.8-0.8-1.9-1.8c0-1,0.8-1.8,1.8-1.9l7.4-0.1
			C229.1,123.7,229.9,123.7,230.7,123.7z"/>
		<path id="Path_6546" style="fill:#DFE4EA;" d="M183.5,149.5c22.5,0,45,1.1,67.4,3.3l17.5,1.7c1,0.1,1.7,1,1.6,2s-1,1.7-2,1.6
			l-17.5-1.7c-33.7-3.3-67.6-4.1-101.4-2.4l-71.6,3.6c-1,0-1.9-0.7-1.9-1.7c-0.1-1,0.7-1.9,1.7-1.9c0,0,0,0,0,0l71.6-3.6
			C160.4,149.8,171.9,149.5,183.5,149.5z"/>
		<path id="Path_6547" style="fill:#DFE4EA;" d="M410.8,262.3h-0.1l-48.9,2.8c-1,0.1-1.8,0.9-1.7,1.9c0.1,1,0.9,1.8,1.9,1.7
			l48.9-2.8c1,0,1.8-0.9,1.7-1.9C412.6,263,411.8,262.3,410.8,262.3L410.8,262.3z"/>
		<path id="Path_6548" style="fill:#DFE4EA;" d="M416.3,292L416.3,292l-72.6,3.2c-1,0-1.8,0.9-1.7,1.9c0,1,0.9,1.8,1.9,1.7l72.5-3.2
			c1,0,1.8-0.9,1.8-1.9C418.1,292.8,417.3,292,416.3,292L416.3,292z"/>
		<path id="Path_6549" style="fill:#DFE4EA;" d="M420.5,324.8L420.5,324.8l-146.6,4.8c-1,0-1.8,0.9-1.8,1.9c0,1,0.9,1.8,1.9,1.8
			l146.6-4.8c1,0,1.8-0.9,1.8-1.9C422.3,325.6,421.5,324.8,420.5,324.8L420.5,324.8z"/>
		<path id="Path_6550" style="fill:#DFE4EA;" d="M425.8,356.6c0,0-0.1,0-0.1,0c-32.6,2.6-132.3,1.6-133.3,1.6h0
			c-1,0-1.8,0.8-1.8,1.8c0,1,0.8,1.8,1.8,1.8c1,0,100.8,1,133.6-1.6c1-0.1,1.8-1,1.7-2C427.5,357.3,426.7,356.6,425.8,356.6
			L425.8,356.6z"/>
		<path id="Path_6552" style="fill:#DFE4EA;" d="M807.4,418.5c-40.7,0-83.5,6.8-84.1,6.9c-1,0.2-1.6,1.1-1.5,2.1
			c0.2,1,1.1,1.6,2,1.5c0.7-0.1,75.4-12,120.8-4.2c1,0.2,1.9-0.5,2.1-1.5c0.2-1-0.5-1.9-1.5-2.1C834,419.2,820.8,418.5,807.4,418.5z
			"/>
		<path id="Path_6553" style="fill:#DFE4EA;" d="M815.4,391.3c-52,0-110.9,10.2-111.5,10.3c-1,0.2-1.6,1.1-1.5,2.1
			c0.2,1,1.1,1.6,2.1,1.5c0.7-0.1,69.8-12.1,124.1-10c1,0.1,1.9-0.7,1.9-1.7c0.1-1-0.7-1.9-1.7-1.9c0,0,0,0,0,0
			C824.4,391.3,819.9,391.3,815.4,391.3z"/>
		<path id="Path_6554" style="fill:#DFE4EA;" d="M796.1,363.6c-23.9,0-52.8,5.2-54.2,5.4c-1,0.2-1.7,1.1-1.5,2.1
			c0.2,1,1.1,1.7,2.1,1.5c0,0,0.1,0,0.1,0c0.4-0.1,41.8-7.5,66.1-4.7c1,0.1,1.9-0.6,2-1.6c0.1-1-0.6-1.9-1.6-2
			C804.7,363.8,800.4,363.6,796.1,363.6z"/>
	</g>
</g>
</svg>
