<?xml version="1.0" encoding="utf-8"?>
<!-- Generator: Adobe Illustrator 25.2.0, SVG Export Plug-In . SVG Version: 6.00 Build 0)  -->
<svg version="1.1" id="Layer_1" xmlns="http://www.w3.org/2000/svg" xmlns:xlink="http://www.w3.org/1999/xlink" x="0px" y="0px"
	 viewBox="0 0 52.5 41.6" style="enable-background:new 0 0 52.5 41.6;" xml:space="preserve">
<g id="Group_3768" transform="translate(304.869 364.656)">
	<path id="Path_5377" d="M-263.3-358.9v-5.8h-5.8c0,0.6-0.6,1.1-1.2,1.1c-0.6,0-1.1-0.5-1.1-1.1h-2.3c0,0.6-0.6,1.1-1.2,1.1
		c-0.6,0-1.1-0.5-1.1-1.1h-2.3c0,0.6-0.6,1.1-1.2,1.1c-0.6,0-1.1-0.5-1.1-1.1h-2.3c0,0.6-0.6,1.1-1.2,1.1c-0.6,0-1.1-0.5-1.1-1.1
		h-2.3c0,0.6-0.5,1.2-1.1,1.2c-0.6,0-1.2-0.5-1.2-1.1c0,0,0,0,0-0.1h-2.3c0,0.6-0.5,1.2-1.2,1.2c-0.6,0-1.2-0.5-1.2-1.2h-2.3
		c0,0.6-0.6,1.1-1.2,1.1c-0.6,0-1.1-0.5-1.1-1.1h-5.8v5.8c0.6,0,1.2,0.5,1.2,1.1c0,0.6-0.5,1.2-1.1,1.2c0,0,0,0-0.1,0v2.3
		c0.6,0,1.2,0.5,1.2,1.1s-0.5,1.2-1.1,1.2c0,0,0,0-0.1,0v2.3c0.6,0,1.2,0.5,1.2,1.1c0,0.6-0.5,1.2-1.1,1.2c0,0,0,0-0.1,0v2.3
		c0.6,0,1.1,0.6,1.1,1.2c0,0.6-0.5,1.1-1.1,1.1v2.3c0.6,0,1.1,0.6,1.1,1.2c0,0.6-0.5,1.1-1.1,1.1v2.3c0.6,0,1.2,0.5,1.2,1.2
		c0,0.6-0.5,1.2-1.2,1.2v2.3c0.6,0,1.1,0.6,1.1,1.2c0,0.6-0.5,1.1-1.1,1.1v5.8h5.8c0-0.6,0.6-1.1,1.2-1.1c0.6,0,1.1,0.5,1.1,1.1h2.3
		c0-0.6,0.6-1.1,1.2-1.1c0.6,0,1.1,0.5,1.1,1.1h2.3c0-0.6,0.5-1.2,1.1-1.2c0.6,0,1.2,0.5,1.2,1.1c0,0,0,0,0,0.1h2.3
		c0-0.6,0.6-1.1,1.2-1.1c0.6,0,1.1,0.5,1.1,1.1h2.3c0-0.6,0.6-1.1,1.2-1.1c0.6,0,1.1,0.5,1.1,1.1h2.3c0-0.6,0.6-1.1,1.2-1.1
		c0.6,0,1.1,0.5,1.1,1.1h2.3c0-0.6,0.6-1.1,1.2-1.1c0.6,0,1.1,0.5,1.1,1.1h5.8v-5.8c-0.6,0-1.1-0.6-1.1-1.2c0-0.6,0.5-1.1,1.1-1.1
		v-2.3c-0.6,0-1.1-0.6-1.1-1.2c0-0.6,0.5-1.1,1.1-1.1v-2.3c-0.6,0-1.1-0.6-1.1-1.2c0-0.6,0.5-1.1,1.1-1.1v-2.3
		c-0.6,0-1.1-0.6-1.1-1.2c0-0.6,0.5-1.1,1.1-1.1v-2.3c-0.6,0-1.1-0.6-1.1-1.2c0-0.6,0.5-1.1,1.1-1.1v-2.3c-0.6,0-1.1-0.6-1.1-1.2
		c0-0.6,0.5-1.1,1.1-1.1v-2.3c-0.6,0-1.1-0.6-1.1-1.2C-264.4-358.4-263.9-358.9-263.3-358.9z M-264.2-359.6c-1,0.5-1.4,1.8-0.9,2.8
		c0.2,0.4,0.5,0.7,0.9,0.9v0.9c-1,0.5-1.4,1.8-0.9,2.8c0.2,0.4,0.5,0.7,0.9,0.9v0.9c-1,0.5-1.4,1.8-0.9,2.8c0.2,0.4,0.5,0.7,0.9,0.9
		v0.9c-1,0.5-1.4,1.8-0.9,2.8c0.2,0.4,0.5,0.7,0.9,0.9v0.9c-1,0.5-1.4,1.8-0.9,2.8c0.2,0.4,0.5,0.7,0.9,0.9v0.9
		c-1,0.5-1.4,1.8-0.9,2.8c0.2,0.4,0.5,0.7,0.9,0.9v0.9c-1,0.5-1.4,1.8-0.9,2.8c0.2,0.4,0.5,0.7,0.9,0.9v4.1h-4.1
		c-0.5-1-1.8-1.4-2.8-0.9c-0.4,0.2-0.7,0.5-0.9,0.9h-0.9c-0.5-1-1.8-1.4-2.8-0.9c-0.4,0.2-0.7,0.5-0.9,0.9h-0.9
		c-0.5-1-1.8-1.4-2.8-0.9c-0.4,0.2-0.7,0.5-0.9,0.9h-0.9c-0.5-1-1.8-1.4-2.8-0.9c-0.4,0.2-0.7,0.5-0.9,0.9h-0.9
		c-0.5-1-1.8-1.4-2.8-0.9c-0.4,0.2-0.7,0.5-0.9,0.9h-0.9c-0.5-1-1.8-1.4-2.8-0.9c-0.4,0.2-0.7,0.5-0.9,0.9h-0.9
		c-0.5-1-1.8-1.4-2.8-0.9c-0.4,0.2-0.7,0.5-0.9,0.9h-4.1v-4.2c1-0.5,1.4-1.8,0.9-2.8c-0.2-0.4-0.5-0.7-0.9-0.9v-0.9
		c1-0.5,1.4-1.8,0.9-2.8c-0.2-0.4-0.5-0.7-0.9-0.9v-0.9c1-0.5,1.4-1.8,0.9-2.8c-0.2-0.4-0.5-0.7-0.9-0.9v-0.9c1-0.5,1.4-1.8,0.9-2.8
		c-0.2-0.4-0.5-0.7-0.9-0.9v-0.9c1-0.5,1.4-1.8,0.9-2.8c-0.2-0.4-0.5-0.7-0.9-0.9v-0.9c1-0.5,1.4-1.8,0.9-2.8
		c-0.2-0.4-0.5-0.7-0.9-0.9v-0.9c1-0.5,1.4-1.8,0.9-2.8c-0.2-0.4-0.5-0.7-0.9-0.9v-4.1h4.1c0.5,1,1.8,1.4,2.8,0.9
		c0.4-0.2,0.7-0.5,0.9-0.9h0.9c0.5,1,1.8,1.4,2.8,0.9c0.4-0.2,0.7-0.5,0.9-0.9h0.9c0.5,1,1.8,1.4,2.8,0.9c0.4-0.2,0.7-0.5,0.9-0.9
		h0.9c0.5,1,1.8,1.4,2.8,0.9c0.4-0.2,0.7-0.5,0.9-0.9h0.9c0.5,1,1.8,1.4,2.8,0.9c0.4-0.2,0.7-0.5,0.9-0.9h0.9c0.5,1,1.8,1.4,2.8,0.9
		c0.4-0.2,0.7-0.5,0.9-0.9h0.9c0.5,1,1.8,1.4,2.8,0.9c0.4-0.2,0.7-0.5,0.9-0.9h4.1L-264.2-359.6L-264.2-359.6z"/>
	<path id="Path_5378" d="M-299.7-328.2h31.3v-31.3h-31.3V-328.2z M-298.8-358.6h29.5v29.5h-29.5L-298.8-358.6z"/>
</g>
<path id="Path_5381" style="stroke:#FFFFFF;stroke-width:2;" d="M50.3,0l-25,26.5L12.5,14.4L9.1,18l16.3,15.4l28.4-30L50.3,0z"/>
</svg>
