<svg xmlns="http://www.w3.org/2000/svg" width="142.943" height="16.414" viewBox="0 0 142.943 16.414">
  <g id="Group_4088" data-name="Group 4088" transform="translate(0.15 0.095)">
    <path id="Path_5701" data-name="Path 5701" d="M761.555,677.1c-22.069-.727-44.094,1.241-66.135,2-9.692.334-19.393.314-29.087.555-9.23.229-18.5.317-27.679-.812a64.313,64.313,0,0,1-18.969-5.069c-.274-.125-.731-1.205-.222-1.259,11.085-1.167,21.937,2.615,32.573,5.156,10.725,2.562,21.655,4.06,31.441,9.506.419.233.583,1.554.007,1.234-9.532-5.3-20.188-6.886-30.661-9.3-10.758-2.483-21.718-6.487-32.923-5.308q-.111-.629-.222-1.259c16.647,7.622,36.089,6.039,53.9,5.622,10.3-.241,20.59-.27,30.888-.742,11.045-.507,22.082-1.186,33.134-1.549,7.908-.26,15.823-.335,23.732-.074.5.016.817,1.323.226,1.3Z" transform="translate(-619.234 -672.295)" fill="#afb7c4" stroke="#afb7c4" stroke-width="0.3"/>
  </g>
</svg>
